Matricola,Course_code,Enrolldate
BD29648,FASS001,05.04.2006
BD29697,U00015,07.03.2006
BD29697,U00075,16.01.2006
BD29697,U00101/B,29.03.2006
BD29697,U00107/1,16.01.2006
BD29747,U00125,05.12.2005
BD29778,U00122,01.08.2005
BD29784,TOJ03,05.09.2005
BD29784,TOJ04,17.10.2005
BD29784,TOJ05,17.10.2005
BD29784,U00015,07.02.2006
BD29784,U00153,05.09.2005
BD29784,U00160,03.03.2006
BD29784,U00178,05.09.2005
BD29784,U00002/1,07.02.2006
BD29784,U00101/B,17.10.2005
BD29784,U00296/A,17.10.2005
BD29789,U00077,12.09.2005
BD29791,U00125,09.01.2006
BD29791,U00153,09.01.2006
BD29791,U00159,25.10.2006
BD29791,U00160,09.01.2006
BD29791,U00002/1,09.01.2006
BD29791,U00102/B,09.01.2006
BD29803,TOJ03,03.02.2006
BD29803,U00075,22.08.2006
BD29803,U00077,22.08.2006
BD29803,U00125,10.08.2005
BD29803,U00159,22.08.2006
BD29803,U00160,10.08.2005
BD29803,U00101/B,22.08.2006
BD29803,U00102/B,10.08.2005
BD29803,U00107/1,22.08.2006
BD29803,U00296/A,03.06.2009
BD29832,TOJ06,01.08.2005
BD29842,U00125,25.07.2005
BD29842,U00160,25.07.2005
BD29868,U00015,23.01.2006
BD29868,U00153,23.01.2006
BD29868,U00101/B,23.10.2006
BD29874,U00013,09.01.2006
BD29874,U00015,09.01.2006
BD29874,U00077,09.01.2006
BD29874,U00125,09.01.2006
BD29874,U00153,09.01.2006
BD29874,U00159,09.01.2006
BD29874,U00160,09.01.2006
BD29874,U00002/1,09.01.2006
BD29874,U00101/B,09.01.2006
BD29874,U00102/B,09.01.2006
BD29885,U00015,31.10.2006
BD29890,U00122,15.02.2006
BD29890,U00159,21.03.2006
BD29890,U00178,04.10.2005
BD29890,U00002/1,04.10.2005
BD29890,U00101/B,04.10.2005
BD29897,U00077,05.09.2005
BD29897,U00125,22.02.2006
BD29897,U00160,05.09.2005
BD29897,U00178,05.09.2005
BD29897,U00102/B,22.02.2006
BD29902,U00296/A,05.09.2005
BD29905,U00015,24.10.2006
BD29905,U00122,24.10.2006
BD29905,U00101/B,24.10.2006
BD29930,U00015,13.02.2006
BD29930,U00075,13.02.2006
BD29930,U00122,13.02.2006
BD29930,U00125,13.02.2006
BD29930,U00160,13.02.2006
BD29930,U00002/1,13.02.2006
BD29930,U00102/B,28.02.2006
BD29930,U00107/1,13.02.2006
BD29930,U00296/A,13.02.2006
BD29939,U00013,25.10.2006
BD29939,U00015,25.10.2006
BD29947,U00013,19.10.2006
BD29952,U00160,20.02.2006
BD29960,U00075,13.02.2006
BD29960,U00125,13.02.2006
BD29960,U00160,29.09.2005
BD29960,U00002/1,13.02.2006
BD29960,U00102/B,20.12.2005
BD29960,U00107/1,13.02.2006
BD29963,U00013,27.03.2006
BD29963,U00101/B,27.03.2006
BD29964,U00015,13.02.2006
BD29964,U00125,13.02.2006
BD29964,U00160,13.02.2006
BD29964,U00102/B,13.02.2006
BD29966,TOJ05,07.02.2006
BD29966,U00125,02.08.2005
BD29966,U00160,02.08.2005
BD29966,U00101/B,07.02.2006
BD29966,U00102/B,02.08.2005
BD29981,U00125,20.02.2006
BD29981,U00002/1,20.02.2006
BD29981,U00107/1,20.02.2006
BD29983,U00075,03.10.2005
BD29983,U00122,03.10.2005
BD29983,U00159,03.10.2005
BD29983,U00101/B,03.10.2005
BD29983,U00107/1,03.10.2005
BD29987,U00122,02.05.2006
BD29987,U00125,02.05.2006
BD29987,U00159,02.05.2006
BD29987,U00160,02.05.2006
BD29987,U00102/B,02.05.2006
BD29987,U00107/1,02.05.2006
BD29987,U00296/A,02.05.2006
BD29989,U00125,03.04.2006
BD29989,U00160,03.04.2006
BD29989,U00102/B,03.04.2006
BD29993,U00015,06.03.2006
BD29993,U00075,08.08.2005
BD29993,U00122,20.02.2006
BD29993,U00159,20.02.2006
BD29993,U00101/B,01.02.2006
BD29993,U00107/1,01.02.2006
BD29994,U00013,09.01.2006
BD29994,U00015,09.01.2006
BD29994,U00075,09.01.2006
BD29994,U00077,09.01.2006
BD29994,U00125,09.01.2006
BD29994,U00153,09.01.2006
BD29994,U00159,09.01.2006
BD29994,U00160,09.01.2006
BD29994,U00002/1,09.01.2006
BD29994,U00101/B,09.01.2006
BD29994,U00102/B,09.01.2006
BD29994,U00107/1,09.01.2006
BD29999,U00160,11.07.2006
BD29999,U00002/1,11.07.2006
BD30000,TOJ02,15.11.2006
BD30000,TOJ03,15.11.2006
BD30000,TOJ04,15.11.2006
BD30000,TOJ05,30.10.2006
BD30000,TOJ06,15.11.2006
BD30000,U00015,30.10.2006
BD30000,U00077,15.11.2006
BD30000,U00122,30.10.2006
BD30000,U00127,30.10.2006
BD30000,U00153,15.11.2006
BD30000,U00159,30.10.2006
BD30000,U00161,15.11.2006
BD30000,U00162,15.11.2006
BD30000,U00101/B,30.10.2006
BD30001,U00015,12.09.2005
BD30001,U00075,22.03.2006
BD30001,U00127,22.03.2006
BD30001,U00101/B,22.03.2006
BD30001,U00107/1,22.03.2006
BD30003,TOJ05,24.03.2006
BD30003,U00015,22.08.2005
BD30003,U00075,22.08.2005
BD30003,U00077,04.05.2006
BD30003,U00122,19.01.2006
BD30003,U00127,22.08.2005
BD30003,U00153,02.02.2006
BD30003,U00159,19.01.2006
BD30003,U00162,04.05.2006
BD30003,U00101/B,22.08.2005
BD30003,U00107/1,22.08.2005
BD30004,U00075,19.04.2006
BD30004,U00125,04.10.2005
BD30004,U00159,19.04.2006
BD30004,U00160,04.10.2005
BD30004,U00178,04.10.2005
BD30004,U00101/B,04.10.2005
BD30004,U00102/B,04.10.2005
BD30004,U00107/1,19.04.2006
BD30005,U00125,02.05.2006
BD30005,U00159,02.05.2006
BD30005,U00160,02.05.2006
BD30005,U00102/B,02.05.2006
BD30009,U00102/B,07.02.2006
BD30011,U00122,05.09.2005
BD30011,U00159,05.09.2005
BD30017,U00015,01.08.2005
BD30017,U00101/B,01.08.2005
BD30019,U00122,17.05.2006
BD30019,U00159,25.10.2006
BD30019,U00002/1,17.05.2006
BD30019,U00296/A,17.05.2006
BD30031,U00015,25.07.2005
BD30031,U00077,25.07.2005
BD30031,U00122,01.08.2005
BD30338,U00122,23.10.2006
BD30338,U00159,23.10.2006
BR36970,U00160,20.03.2006
BR36995,FASS001,21.02.2006
BR36995,U00101/B,14.03.2006
BR37000,U00122,01.03.2006
BR37000,U00125,01.03.2006
BR37000,U00127,01.03.2006
BR37000,U00159,01.03.2006
BR37000,U00160,01.03.2006
BR37000,U00203,01.03.2006
BR37000,U00101/B,01.03.2006
BR37000,U00102/B,01.03.2006
BR37000,U00296/A,01.03.2006
BR37005,U00153,20.02.2006
BR37009,U00077,25.10.2005
BR37009,U00127,27.03.2006
BR37035,U00161,09.08.2006
BR37035,U00162,09.08.2006
BR37044,U00160,11.08.2005
BR37070,TOJ01,04.04.2006
BR37070,TOJ05,15.05.2006
BR37070,U00077,15.05.2006
BR37105,TOJ01,26.04.2006
BR37105,U00153,13.09.2005
BR37105,U00203,26.04.2006
BR37113,U00101/B,20.10.2006
BR37122,TOJ01,05.12.2005
BR37122,TOJ06,05.12.2005
BR37122,U00077,05.12.2005
BR37122,U00203,05.12.2005
BR37150,U00015,10.10.2005
BR37186,TOJ05,03.11.2006
BR37245,TOJ05,23.02.2006
BR37245,U00015,23.02.2006
BR37245,U00122,23.02.2006
BR37245,U00102/B,31.08.2005
BR37256,U00002/1,29.08.2005
BR37264,U00296/A,25.07.2005
BR37265,TOJ02,03.10.2005
BR37265,TOJ03,03.10.2005
BR37265,TOJ05,03.10.2005
BR37266,TOJ06,05.12.2005
BR37266,U00015,30.06.2006
BR37266,U00075,07.09.2006
BR37266,U00153,30.06.2006
BR37266,U00159,30.06.2006
BR37266,U00101/B,30.06.2006
BR37266,U00107/1,07.09.2006
BR37282,U00125,20.02.2006
BR37282,U00160,20.02.2006
BR37282,U00102/B,20.02.2006
BR37287,TOJ01,13.09.2005
BR37287,U00127,13.09.2005
BR37287,U00203,13.09.2005
BR37304,U00125,25.07.2005
BR37304,U00002/1,25.07.2005
BR37344,U00013,20.10.2006
BR37344,U00015,20.10.2006
BR37344,U00160,09.01.2006
BR37344,U00002/1,21.12.2005
BR37344,U00296/A,16.01.2006
BR37364,TOJ01,07.11.2005
BR37364,TOJ06,07.11.2005
BR37364,U00077,07.11.2005
BR37366,FASS001,28.04.2006
BR37407,TOJ05,25.07.2005
BR37407,U00015,13.03.2006
BR37407,U00153,25.07.2005
BR37407,U00101/B,25.07.2005
BR37449,U00122,05.09.2005
BR37449,U00178,05.09.2005
BR37449,U00101/B,05.09.2005
BR37454,TOJ03,05.09.2005
BR37466,U00125,03.04.2006
BR37466,U00160,03.04.2006
BR37466,U00102/B,19.08.2005
BR37467,U00077,11.11.2005
BR37467,U00101/B,11.11.2005
BR37478,U00160,06.03.2006
BR37478,FASS001,08.05.2006
BR37478,U00102/B,26.09.2005
BR37483,U00125,26.09.2005
BR37498,U00125,19.09.2005
BR37498,U00160,19.09.2005
BR37498,FASS001,19.05.2006
BR37516,U00160,16.08.2005
BR37534,U00161,06.03.2006
BR37534,U00162,06.03.2006
BR37534,U00203,06.03.2006
BR37534,U00101/B,06.03.2006
BR37547,FASS001,05.06.2006
BR37556,TOJ04,03.05.2006
BR37556,U00101/B,27.03.2006
BR37605,U00013,10.06.2008
BR37605,U00015,10.06.2008
BR37605,U00075,20.08.2007
BR37605,U00159,10.06.2008
BR37605,U00107/1,10.06.2008
BR37615,U00002/1,19.08.2005
BR37615,U00296/A,19.08.2005
BR37619,U00075,23.02.2006
BR37619,U00125,19.08.2005
BR37619,U00160,20.03.2006
BR37621,U00122,13.02.2006
BR37621,U00296/A,20.10.2006
BR37624,U00296/A,20.10.2006
BR37631,TOJ03,27.02.2006
BR37631,U00075,27.02.2006
BR37631,U00077,27.02.2006
BR37631,U00122,11.08.2005
BR37631,U00127,27.02.2006
BR37631,U00153,11.08.2005
BR37631,U00159,27.02.2006
BR37631,U00296/A,27.02.2006
BR37636,TOJ02,08.08.2005
BR37636,FASS001,10.03.2006
BR37640,U00125,19.10.2006
BR37640,U00153,19.10.2006
BR37648,U00125,26.01.2006
BR37648,U00160,26.01.2006
BR37650,U00075,12.09.2005
BR37650,U00002/1,12.09.2005
BR37650,U00101/B,12.09.2005
BR37664,U00125,12.04.2006
BR37664,U00160,12.04.2006
BR37664,U00002/1,12.04.2006
BR37664,U00102/B,12.04.2006
BR37666,TOJ03,19.05.2006
BR37666,TOJ05,19.05.2006
BR37666,U00015,19.05.2006
BR37666,U00075,19.05.2006
BR37666,U00077,19.05.2006
BR37666,U00122,19.05.2006
BR37666,U00125,19.05.2006
BR37666,U00153,19.05.2006
BR37666,U00159,13.03.2006
BR37666,U00160,13.03.2006
BR37666,U00178,13.03.2006
BR37666,FASS001,04.05.2006
BR37666,U00002/1,13.03.2006
BR37666,U00102/B,13.03.2006
BR37666,U00107/1,19.05.2006
BR37666,U00296/A,19.05.2006
BR37675,U00153,24.10.2006
BR37675,U00159,24.10.2006
BR37702,TOJ03,16.08.2005
BR37702,U00075,16.08.2005
BR37702,U00122,02.05.2006
BR37702,U00159,02.05.2006
BR37702,U00160,02.05.2006
BR37702,U00107/1,16.08.2005
BR37743,U00159,03.04.2006
BR37744,U00125,27.02.2006
BR37744,U00102/B,27.02.2006
BR37748,U00101/B,03.04.2006
BR37754,U00101/B,10.04.2006
BR37758,U00160,22.05.2006
BR37767,U00125,09.09.2005
BR37767,U00160,09.09.2005
BR37767,U00102/B,09.09.2005
BR37787,U00160,05.09.2005
BR37796,U00296/A,07.07.2006
BR37804,U00122,01.08.2005
BR37808,U00101/B,18.10.2006
BR37812,U00077,27.02.2006
BR37812,U00160,27.02.2006
BR37813,U00075,22.03.2006
BR37813,U00107/1,22.03.2006
BR37818,U00122,26.08.2005
BR37818,U00125,26.08.2005
BR37818,U00159,26.08.2005
BR37818,U00160,26.08.2005
BR37818,U00101/B,26.08.2005
BR37818,U00107/1,26.08.2005
BR37818,U00296/A,26.08.2005
BR37833,U00159,18.04.2006
BR37890,TOJ05,30.08.2005
BR37890,U00015,30.08.2005
BR37890,U00075,30.08.2005
BR37890,U00122,30.08.2005
BR37898,TOJ03,22.08.2005
BR37898,FASS001,19.05.2006
BR37909,U00075,26.10.2006
BR37909,U00160,26.10.2006
BR37909,U00102/B,26.10.2006
BR37913,FASS001,14.04.2006
BR37914,FASS001,30.05.2006
BR37979,U00122,02.09.2005
BR37979,U00159,02.09.2005
BR37979,U00101/B,02.09.2005
BR37991,U00102/B,13.12.2005
BR38002,TOJ05,11.04.2006
BR38039,U00015,21.04.2006
BR38039,U00075,21.04.2006
BR38039,U00159,25.10.2006
BR38039,U00107/1,21.04.2006
BR38050,U00102/B,07.03.2006
BR38072,TOJ03,09.11.2006
BR38072,U00077,09.11.2006
BR38072,U00125,05.09.2005
BR38072,U00160,05.09.2005
BR38072,U00101/B,09.11.2006
BR38072,U00102/B,05.09.2005
BR38075,U00015,09.11.2006
BR38075,U00125,20.04.2006
BR38075,U00160,09.11.2006
BR38075,U00002/1,20.04.2006
BR38078,U00125,07.04.2006
BR38078,U00153,07.04.2006
BR38078,U00160,07.04.2006
BR38078,U00102/B,07.04.2006
BR38088,TOJ02,12.04.2006
BR38094,TOJ05,06.09.2005
BR38094,U00101/B,06.09.2005
BR38107,TOJ05,13.02.2006
BR38151,U00122,01.08.2005
BR38151,U00160,19.10.2006
BR38151,U00102/B,19.10.2006
BR38204,U00075,19.10.2006
BR38204,U00160,19.10.2006
BR38226,U00075,31.08.2006
BR38226,U00101/B,31.08.2006
BR38226,U00107/1,31.08.2006
BR38246,TOJ01,10.04.2006
BR38246,TOJ06,10.04.2006
BR38278,TOJ03,17.07.2006
BR38278,U00159,17.07.2006
BR38310,U00203,28.09.2005
BR38346,U00015,21.03.2006
BR38346,U00101/B,15.03.2006
BR38349,TOJ06,20.12.2005
BR38349,U00203,20.12.2005
BR38407,U00159,08.06.2009
BR38407,U00002/1,08.06.2009
BR38407,U00296/A,12.12.2005
BR38424,U00125,03.02.2006
BR38424,U00160,03.02.2006
BR38424,U00102/B,11.04.2006
BR38424,U00296/A,03.02.2006
BR38434,U00015,15.02.2006
BR38488,U00107/1,03.10.2005
BR38509,U00203,09.05.2006
BR38605,U00125,07.03.2006
BR38605,U00102/B,07.03.2006
BR38606,U00102/B,25.07.2005
BR38625,U00178,06.03.2006
BR38625,U00002/1,06.02.2006
BR38625,U00296/A,06.03.2006
BR38631,U00075,27.02.2006
BR38631,U00122,27.02.2006
BR38631,U00125,27.02.2006
BR38631,U00159,27.02.2006
BR38631,U00160,27.02.2006
BR38631,U00002/1,27.02.2006
BR38631,U00101/B,27.02.2006
BR38631,U00102/B,27.02.2006
BR38631,U00296/A,27.02.2006
BR38676,U00159,19.04.2006
BR38691,TOJ03,25.07.2006
BR38700,U00075,11.11.2005
BR38700,U00122,30.08.2005
BR38700,U00159,30.08.2005
BR38700,U00002/1,11.11.2005
BR38700,U00107/1,11.11.2005
BR38700,U00296/A,11.11.2005
BR38729,U00102/B,09.01.2006
BR38775,FASS001,28.02.2006
BR38801,FASS001,09.06.2006
BR38812,U00102/B,07.06.2006
BR38834,U00075,20.09.2005
BR38851,U00159,17.02.2006
BR38913,TOJ05,16.01.2006
BR38913,TOJ06,16.01.2006
BR38913,U00122,16.01.2006
BR38913,U00153,16.01.2006
BR38913,U00159,16.01.2006
BR38963,TOJ05,27.02.2006
BR38963,U00015,07.04.2006
BR38963,U00075,13.04.2006
BR38963,U00101/B,27.02.2006
BR38963,U00107/1,03.04.2006
BR38989,FASS001,13.06.2006
BR38989,U00101/B,01.02.2006
BR38990,U00015,20.03.2006
BR38990,U00153,20.03.2006
BR39016,FASS001,22.03.2006
BR39173,U00102/B,09.08.2005
BR39238,U00125,06.02.2006
BR39238,U00160,06.02.2006
BR39245,U00075,02.05.2006
BR39295,U00015,28.02.2006
BR39324,U00159,18.10.2006
BR39325,U00015,09.08.2005
BR39325,U00107/1,20.03.2006
BR39342,TOJ06,12.09.2005
BR39371,U00122,09.08.2005
BR39371,U00159,15.09.2005
BR39392,U00101/B,27.03.2006
BR39393,U00102/B,24.04.2006
BR39419,U00203,16.12.2005
BR39455,U00161,20.06.2006
BR39511,FASS001,09.05.2006
BR39514,U00125,12.12.2005
BR39514,U00160,12.12.2005
BR39514,U00102/B,12.12.2005
BR39529,U00102/B,20.02.2006
BR39536,FASS001,09.05.2006
BR39540,U00122,05.09.2005
BR39540,U00159,05.09.2005
BR39555,U00015,13.03.2006
BR39584,U00013,22.03.2006
BR39584,U00101/B,22.03.2006
BR39643,U00075,04.08.2005
BR39643,U00159,04.08.2005
BR39643,U00160,11.10.2005
BR39643,U00102/B,18.10.2006
BR39654,U00203,25.07.2005
BR39684,TOJ03,27.03.2006
BR39684,TOJ05,16.08.2005
BR39684,U00077,20.03.2006
BR39684,U00101/B,27.03.2006
BR39740,U00122,10.04.2006
BR39751,TOJ06,20.12.2005
BR39761,U00159,13.09.2005
BR39780,U00077,06.07.2006
BR39859,U00159,03.04.2006
BR39859,U00102/B,03.04.2006
BR39878,U00101/B,14.04.2006
BR39936,U00101/B,18.04.2006
BR39942,U00015,10.04.2006
BR39942,U00075,19.04.2006
BR39953,FASS001,01.03.2006
BR39956,U00075,25.07.2005
BR39956,U00107/1,25.07.2005
BR39960,U00015,26.07.2005
BR39960,U00122,26.07.2005
BR39960,U00153,26.07.2005
BR39960,U00159,26.07.2005
BR39960,U00002/1,26.07.2005
BR39960,U00296/A,26.07.2005
BR39997,U00015,12.12.2005
BR39997,U00125,12.12.2005
BR40023,TOJ01,23.08.2005
BR40023,TOJ04,23.10.2006
BR40023,TOJ06,23.08.2005
BR40023,U00075,23.10.2006
BR40023,U00122,23.10.2006
BR40023,U00101/B,23.10.2006
BR40037,U00101/B,06.03.2006
BR40054,U00075,23.08.2005
BR40054,U00107/1,23.08.2005
BR40088,U00122,25.07.2005
BR40088,U00159,25.07.2005
BR40088,U00160,25.07.2005
BR40088,U00002/1,25.07.2005
BR40089,FASS001,09.05.2006
BR40109,U00122,11.08.2005
BR40109,U00159,11.08.2005
BR40109,U00002/1,11.08.2005
BR40109,U00102/B,11.08.2005
BR40109,U00296/A,11.08.2005
BR40140,U00160,20.10.2006
BR40140,U00107/1,20.10.2006
BR40143,U00159,26.07.2005
BR40150,U00127,27.09.2005
BR40170,TOJ01,19.04.2006
BR40170,TOJ02,20.02.2006
BR40170,TOJ03,20.02.2006
BR40170,TOJ04,20.02.2006
BR40170,TOJ05,19.04.2006
BR40170,U00122,19.04.2006
BR40170,U00178,05.12.2005
BR40170,U00107/1,27.03.2006
BR40180,FASS001,19.05.2006
BR40287,U00077,26.10.2005
BR40287,U00161,26.10.2005
BR40287,U00162,26.10.2005
BR40287,U00101/B,06.02.2006
BR40322,FASS001,14.06.2006
BR40346,U00296/A,28.06.2006
BR40408,U00101/B,12.09.2005
BR40421,U00075,16.08.2005
BR40421,U00002/1,16.08.2005
BR40421,U00296/A,16.08.2005
BR40424,U00125,01.03.2006
BR40424,U00160,01.03.2006
BR40424,U00102/B,01.03.2006
BR40445,TOJ02,27.02.2006
BR40445,TOJ03,27.02.2006
BR40445,TOJ04,27.02.2006
BR40445,TOJ05,27.02.2006
BR40445,U00015,27.02.2006
BR40445,U00077,27.02.2006
BR40445,U00153,27.02.2006
BR40445,U00162,27.02.2006
BR40445,U00203,27.02.2006
BR40445,U00101/B,27.02.2006
BR40465,U00125,27.02.2006
BR40465,U00160,19.08.2005
BR40465,U00102/B,19.08.2005
BR40465,U00107/1,17.01.2006
BR40472,U00160,19.09.2005
BR40477,U00159,18.10.2006
BR40477,U00160,12.09.2005
BR40477,U00101/B,12.09.2005
BR40488,U00159,18.10.2006
BR40488,U00160,13.03.2006
BR40488,FASS001,03.05.2006
BR40489,U00101/B,28.03.2006
BR40511,U00015,20.04.2006
BR40511,U00075,20.04.2006
BR40511,U00101/B,20.04.2006
BR40511,U00107/1,20.04.2006
BR40529,U00153,17.05.2006
BR40559,U00075,21.04.2006
BR40559,U00127,21.04.2006
BR40559,U00203,21.04.2006
BR40559,U00107/1,21.04.2006
BR40700,TOJ01,03.04.2006
BR40700,TOJ02,03.04.2006
BR40700,TOJ03,03.04.2006
BR40700,TOJ05,03.04.2006
BR40700,TOJ06,03.04.2006
BR40700,U00015,31.10.2005
BR40700,U00075,31.10.2005
BR40700,U00122,31.10.2005
BR40700,U00127,31.10.2005
BR40700,U00153,31.10.2005
BR40700,U00161,03.04.2006
BR40700,U00162,03.04.2006
BR40700,U00203,31.10.2005
BR40700,U00101/B,31.10.2005
BR40700,U00107/1,31.10.2005
BR40704,TOJ05,02.05.2006
BR40720,TOJ05,16.08.2005
BR40748,U00102/B,30.08.2005
BR40751,U00160,20.03.2006
BR40775,U00159,10.04.2006
BR40775,U00107/1,10.04.2006
BR40834,U00015,24.02.2006
BR40834,U00075,24.02.2006
BR40834,U00122,06.09.2005
BR40834,U00159,06.09.2005
BR40834,U00203,06.09.2005
BR40845,TOJ06,12.09.2005
BR40845,U00077,12.09.2005
BR40874,U00122,22.08.2005
BR40874,U00159,22.08.2005
BR40887,U00125,08.08.2005
BR40887,U00160,18.05.2006
BR40887,U00102/B,21.03.2006
BR40887,U00107/1,21.03.2006
BR40897,TOJ02,27.04.2006
BR40897,TOJ03,27.04.2006
BR40897,TOJ05,27.04.2006
BR40897,U00075,27.04.2006
BR40897,U00122,27.04.2006
BR40931,U00122,16.01.2006
BR41097,U00002/1,25.07.2005
BR41118,TOJ04,13.02.2006
BR41126,U00101/B,07.03.2006
BR41173,U00153,01.08.2005
BR41277,U00075,30.05.2006
BR41277,U00122,30.05.2006
BR41277,U00159,30.05.2006
BR41277,U00101/B,30.05.2006
BR41277,U00107/1,30.05.2006
BR41292,U00125,18.04.2006
BR41292,U00160,18.04.2006
BR41292,U00102/B,18.04.2006
BR41295,U00125,02.09.2005
BR41295,U00160,28.04.2006
BR41295,U00002/1,13.02.2006
BR41295,U00102/B,25.08.2005
BR41295,U00296/A,02.09.2005
BR41296,TOJ01,16.01.2006
BR41296,TOJ06,16.01.2006
BR41296,U00077,16.01.2006
BR41296,U00127,16.01.2006
BR41296,U00161,16.01.2006
BR41296,U00162,16.01.2006
BR41296,U00203,16.01.2006
BR41307,U00075,16.05.2006
BR41307,U00107/1,16.05.2006
BR41348,U00101/B,13.03.2006
BR41392,U00102/B,08.02.2006
BR41460,U00101/B,27.12.2005
BR41466,TOJ01,13.02.2006
BR41466,TOJ03,13.02.2006
BR41466,U00153,13.02.2006
BR41466,U00203,13.02.2006
BR41503,TOJ05,26.04.2006
BR41503,U00075,26.04.2006
BR41503,U00153,26.04.2006
BR41503,U00107/1,26.04.2006
BR41528,U00101/B,13.02.2006
BR41600,U00178,24.10.2005
BR41600,U00296/A,24.10.2005
BR41625,U00122,10.04.2006
BR41688,U00122,27.12.2005
BR41782,U00153,20.02.2006
BR41825,U00178,05.12.2005
BR41841,U00125,27.02.2006
BR41841,U00160,27.02.2006
BR41873,U00013,22.09.2005
BR41929,U00077,09.02.2006
BR41929,U00122,09.02.2006
BR41929,U00127,09.02.2006
BR41929,U00178,17.11.2005
BR41938,U00015,20.02.2006
BR42032,TOJ05,01.09.2005
BR42040,U00122,17.10.2005
BR42040,U00127,23.10.2008
BR42040,U00101/B,23.10.2008
BR42062,TOJ05,27.02.2006
BR42062,U00153,27.02.2006
BR42109,TOJ05,17.08.2005
BR42109,U00101/B,17.08.2005
BR42177,U00077,31.08.2005
BR42214,U00015,10.04.2006
BR42256,TOJ06,02.03.2006
BR42262,U00015,06.02.2006
BR42294,TOJ05,10.04.2006
BR42324,U00015,20.03.2006
BR42324,U00075,28.03.2006
BR42324,U00153,20.03.2006
BR42324,U00159,28.03.2006
BR42324,U00101/B,28.03.2006
BR42324,U00107/1,28.03.2006
BR42333,U00203,20.03.2006
BR42333,U00101/B,13.02.2006
BR42335,U00122,05.09.2005
BR42339,U00122,17.05.2006
BR42339,U00153,17.05.2006
BR42340,U00203,17.05.2006
BR42408,U00153,10.08.2005
BR42433,U00075,15.06.2006
BR42433,U00122,15.06.2006
BR42433,U00153,15.06.2006
BR42433,U00159,15.06.2006
BR42433,U00101/B,15.06.2006
BR42487,U00122,26.04.2006
BR42556,TOJ03,08.08.2005
BR42556,TOJ05,08.08.2005
BR42556,U00077,08.08.2005
BR42556,U00122,08.08.2005
BR42556,U00159,08.08.2005
BR42556,U00178,08.08.2005
BR42556,U00101/B,08.08.2005
BR42556,U00296/A,08.08.2005
BR42647,U00015,24.03.2006
BR42739,U00159,14.02.2006
BR42739,U00107/1,14.02.2006
BR42756,U00178,06.03.2006
BR42756,U00002/1,06.02.2006
BR42756,U00296/A,06.03.2006
BR42775,TOJ05,18.04.2006
BR42794,U00075,20.10.2006
BR42794,U00107/1,20.10.2006
BR42800,FASS001,23.02.2006
BR42823,U00015,16.08.2005
BR42826,U00015,19.09.2005
BR42826,U00075,02.02.2006
BR42826,U00122,02.02.2006
BR42826,U00159,02.02.2006
BR42826,U00002/1,19.09.2005
BR42826,U00107/1,02.02.2006
BR42826,U00296/A,02.02.2006
BR42829,U00075,06.02.2006
BR42829,U00122,25.07.2005
BR42829,U00125,02.02.2006
BR42829,U00159,25.07.2005
BR42829,U00160,02.02.2006
BR42829,U00102/B,25.07.2005
BR42842,TOJ03,19.04.2006
BR42842,TOJ05,03.04.2006
BR42844,TOJ05,27.04.2006
BR42844,U00015,27.02.2006
BR42844,U00075,27.02.2006
BR42844,U00122,03.08.2005
BR42844,U00159,03.08.2005
BR42844,U00107/1,27.02.2006
BR42853,U00159,12.12.2005
BR42853,U00101/B,12.12.2005
BR42853,U00296/A,12.12.2005
BR57813,TOJ02,16.08.2005
BR57813,TOJ03,16.08.2005
BR57813,TOJ05,16.08.2005
BR57813,U00153,16.08.2005
BR57858,U00107/1,15.03.2006
C019207,TOJ01,05.09.2005
C019207,TOJ06,05.09.2005
C019554,U00178,12.09.2005
C022513,U00125,05.10.2005
C024418,U00013,25.07.2005
C024418,U00015,25.07.2005
C024418,U00153,25.07.2005
C025235,TOJ01,08.06.2006
C025523,TOJ03,19.04.2006
C027036,U00077,27.03.2006
C027036,U00161,27.03.2006
C027036,U00162,27.03.2006
C027036,U00203,27.03.2006
C027439,U00122,05.09.2006
C027439,U00101/B,27.02.2006
C027439,U00107/1,05.09.2006
C027656,U00153,27.02.2006
C027772,U00122,07.09.2005
C027772,U00159,07.09.2005
C027826,U00075,05.09.2006
C027826,U00153,05.09.2006
C027826,U00159,05.09.2006
C027826,U00101/B,05.09.2006
C027848,TOJ05,05.09.2005
C027848,U00077,27.02.2006
C027848,U00122,05.09.2005
C027848,U00159,05.09.2005
C028364,U00077,05.08.2005
C028736,U00101/B,27.12.2005
C028759,U00125,05.09.2005
C028759,U00160,05.09.2005
C028759,U00002/1,30.08.2005
C028801,U00162,18.04.2006
C028801,U00203,17.03.2006
C029099,U00101/B,08.08.2005
C029472,U00178,27.12.2005
C029546,TOJ05,20.03.2006
C029627,U00101/B,29.12.2005
C029784,U00102/B,01.08.2005
C030137,U00125,14.09.2005
C030137,U00102/B,14.09.2005
C030152,FASS001,15.05.2006
C030411,U00178,14.12.2005
C030737,TOJ03,03.10.2005
C030737,U00159,03.10.2005
C030860,U00101/B,22.09.2005
C030864,U00101/B,06.02.2006
C030873,U00153,08.08.2005
C030962,U00077,04.01.2006
C031182,U00013,17.08.2005
C031182,U00153,17.08.2005
C031376,U00203,03.10.2005
C031605,U00296/A,05.08.2005
C031681,U00296/A,01.09.2005
C032293,TOJ01,18.04.2006
C032293,TOJ03,18.04.2006
C032293,TOJ05,18.04.2006
C032293,TOJ06,18.04.2006
C032293,U00015,20.02.2006
C032293,U00077,18.04.2006
C032293,U00153,18.04.2006
C032293,U00159,18.04.2006
C032553,U00101/B,08.02.2006
C032614,TOJ02,08.08.2005
C032731,U00153,03.03.2006
C032930,TOJ05,05.08.2005
C032930,U00077,20.10.2006
C032930,U00101/B,05.08.2005
C033186,U00125,25.07.2005
C033269,TOJ06,23.08.2005
C033373,U00015,06.12.2005
C033487,U00296/A,09.01.2006
C033599,U00160,16.08.2005
C033735,TOJ02,27.04.2006
C033940,U00125,17.11.2005
C033940,U00102/B,16.11.2005
C034011,U00125,21.02.2006
C034066,U00296/A,22.02.2006
C034133,U00296/A,03.08.2005
C034186,TOJ05,25.07.2005
C034186,U00101/B,25.07.2005
C034202,U00102/B,01.08.2005
C034633,U00127,15.12.2005
C034712,U00159,29.08.2007
C034728,U00077,17.05.2006
C034728,U00127,17.05.2006
C034733,TOJ03,26.09.2005
C034733,U00013,26.09.2005
C034797,U00101/B,03.04.2006
C034867,TOJ05,05.09.2005
C034994,U00122,04.11.2005
C034994,U00159,04.11.2005
C034994,U00160,04.11.2005
C034994,U00203,04.11.2005
C034994,U00101/B,08.08.2005
C034994,U00296/A,04.11.2005
C035002,U00153,18.10.2006
C035060,U00101/B,12.09.2005
C035075,TOJ01,08.08.2005
C035075,TOJ06,08.08.2005
C035075,U00127,20.02.2006
C035192,TOJ06,20.02.2006
C035192,U00203,20.02.2006
C035281,U00075,26.07.2005
C035281,U00159,26.07.2005
C035281,U00002/1,26.07.2005
C035301,TOJ01,07.02.2006
C035358,U00077,18.08.2005
C036410,U00159,22.08.2005
C036442,U00153,25.08.2005
C036694,TOJ01,04.08.2005
C036694,U00127,04.08.2005
C040144,U00203,27.10.2005
C040158,U00101/B,12.09.2005
C040158,U00296/A,12.09.2005
C040297,U00153,08.09.2005
C040561,U00125,16.08.2005
C040561,U00160,05.09.2005
C040563,FASS001,02.03.2006
C040607,U00015,13.02.2006
C040607,U00075,13.02.2006
C040607,U00122,13.02.2006
C040607,U00125,13.02.2006
C040607,U00160,13.02.2006
C040607,FASS001,19.05.2006
C040607,U00002/1,13.02.2006
C040607,U00101/B,13.02.2006
C040607,U00102/B,13.02.2006
C040607,U00107/1,13.02.2006
C040607,U00296/A,13.02.2006
C040688,TOJ01,27.03.2006
C040688,TOJ04,22.03.2006
C040688,TOJ06,23.12.2005
C040692,U00101/B,08.06.2006
C040804,U00002/1,06.02.2006
C040804,U00101/B,06.02.2006
C041255,U00101/B,27.02.2006
C041285,TOJ05,03.08.2005
C041285,U00296/A,03.08.2005
C041325,U00002/1,19.09.2005
C041361,TOJ06,10.08.2005
C041361,U00153,10.08.2005
C041374,U00101/B,03.08.2005
C041425,TOJ04,22.08.2005
C041425,TOJ06,22.08.2005
C041425,U00153,22.08.2005
C041425,U00160,22.08.2005
C041425,U00102/B,22.08.2005
C041425,U00296/A,22.08.2005
C041453,U00002/1,15.05.2006
C041586,FASS001,07.04.2006
C041586,U00101/B,13.12.2006
C041613,U00101/B,13.03.2006
C041667,U00101/B,19.10.2006
C041683,U00309,19.10.2006
C041683,U00312,19.10.2006
C041698,FASS001,02.05.2006
C041760,U00101/B,19.10.2006
C041785,U00013,18.10.2006
C041785,U00101/B,25.08.2005
C041798,U00101/B,18.10.2006
C041926,U00122,20.10.2006
C041926,U00101/B,20.10.2006
C041947,U00178,26.01.2006
C041947,U00296/A,26.01.2006
C042005,TOJ01,21.03.2006
C042005,TOJ02,21.03.2006
C042005,TOJ03,21.03.2006
C042005,TOJ04,21.03.2006
C042005,TOJ05,21.03.2006
C042005,TOJ06,22.02.2006
C042005,U00122,21.03.2006
C042005,U00153,21.03.2006
C042005,U00101/B,22.02.2006
C042071,U00153,20.03.2006
C042071,U00101/B,20.03.2006
C042080,TOJ02,05.09.2005
C042080,TOJ05,05.09.2005
C042080,U00075,03.05.2006
C042080,U00077,03.05.2006
C042080,U00122,03.05.2006
C042080,U00159,03.05.2006
C042080,U00160,03.05.2006
C042080,U00002/1,03.05.2006
C042080,U00101/B,03.05.2006
C042080,U00107/1,03.05.2006
C042080,U00296/A,03.05.2006
C042113,U00101/B,27.02.2006
C042133,U00122,26.06.2006
C042133,U00159,26.06.2006
C042133,U00101/B,26.06.2006
C042140,TOJ03,19.10.2006
C042140,TOJ04,19.10.2006
C042140,U00077,19.10.2006
C042140,U00122,19.10.2006
C042140,U00159,19.10.2006
C042140,U00002/1,19.10.2006
C042200,U00122,22.05.2006
C042200,U00101/B,03.04.2006
C042271,U00101/B,26.07.2005
C042292,U00101/B,27.02.2006
C042634,U00101/B,18.04.2006
C042640,U00101/B,08.08.2005
C042778,U00122,27.03.2006
C042778,U00101/B,14.02.2006
C042790,TOJ03,26.09.2005
C042790,U00153,26.09.2005
C042809,TOJ05,19.10.2006
C042809,U00075,19.10.2006
C042809,U00122,19.10.2006
C042809,U00101/B,19.10.2006
C042809,U00107/1,19.10.2006
C042834,U00002/1,19.06.2006
C042834,U00101/B,19.06.2006
C042840,U00101/B,29.05.2006
C042851,U00309,19.10.2006
C042851,U00312,19.10.2006
C043033,U00102/B,18.10.2006
C043184,U00122,23.01.2006
C043184,U00178,23.01.2006
C043184,U00101/B,23.01.2006
C043203,TOJ05,19.04.2006
C043271,U00127,10.10.2005
C043271,U00101/B,10.10.2005
C043359,TOJ03,13.03.2006
C043359,TOJ06,05.08.2005
C043359,U00127,25.05.2006
C043359,U00161,05.08.2005
C043359,U00101/B,25.05.2006
C043374,U00122,16.08.2005
C043399,TOJ06,27.03.2006
C043399,U00101/B,25.07.2005
C043405,TOJ03,25.01.2006
C043405,U00153,25.01.2006
C043474,U00015,18.10.2006
C043474,U00101/B,12.04.2006
C043524,TOJ02,17.08.2005
C043524,TOJ03,17.08.2005
C043524,U00161,17.08.2005
C043524,U00162,17.08.2005
C043615,U00153,16.08.2005
C043679,TOJ04,20.02.2006
C043745,U00101/B,03.02.2006
C043767,U00101/B,15.04.2006
C043797,TOJ04,01.08.2005
C043797,TOJ05,01.08.2005
C043897,TOJ01,05.09.2005
C043933,U00153,09.08.2005
C043950,U00153,06.10.2005
C044003,U00122,20.03.2006
C044057,U00101/B,27.02.2006
C044081,U00153,19.12.2005
C044272,TOJ03,21.04.2006
C044303,U00122,26.09.2005
C044363,U00153,19.07.2005
C044363,FASS001,13.06.2006
C044418,TOJ05,22.02.2006
C044418,U00101/B,22.02.2006
C044436,U00101/B,27.02.2006
C044480,TOJ01,24.05.2006
C044480,TOJ03,24.05.2006
C044480,TOJ05,24.05.2006
C044480,TOJ06,24.05.2006
C044480,U00122,24.05.2006
C044480,U00127,24.05.2006
C044480,U00153,24.05.2006
C044480,U00159,24.05.2006
C044480,U00203,24.05.2006
C044508,TOJ05,03.08.2005
C044508,U00101/B,03.08.2005
C044598,U00102/B,27.04.2006
C044634,U00127,17.10.2005
C044690,U00101/B,01.06.2006
C044692,U00153,25.07.2005
C044901,U00153,27.02.2006
C044901,U00178,27.02.2006
C044901,U00101/B,27.02.2006
C045035,TOJ04,19.04.2006
C045035,TOJ05,19.04.2006
C045035,TOJ06,19.04.2006
C045035,U00153,19.04.2006
C045035,U00101/B,19.04.2006
C045140,TOJ05,12.09.2005
C045190,U00015,18.10.2006
C045190,U00075,18.10.2006
C045201,TOJ05,12.05.2006
C045253,U00102/B,05.09.2005
C045304,U00101/B,24.03.2006
C045316,U00101/B,13.06.2006
C045390,U00122,17.10.2005
C045390,U00125,17.10.2005
C045390,U00178,17.10.2005
C045390,U00102/B,17.10.2005
C045435,U00153,01.08.2005
C045486,U00101/B,06.03.2006
C045572,U00013,17.02.2006
C045572,U00153,17.02.2006
C045572,U00101/B,27.02.2006
C045598,TOJ06,26.05.2006
C045598,U00077,26.05.2006
C045774,U00122,25.07.2005
C045882,U00309,19.10.2006
C045882,U00310,19.10.2006
C045882,U00312,19.10.2006
C045952,U00122,16.10.2006
C045952,U00160,16.10.2006
C045997,TOJ03,09.08.2006
C045997,TOJ04,09.08.2006
C045997,TOJ05,09.08.2006
C045997,U00077,09.08.2006
C045997,U00122,01.08.2005
C045997,U00159,09.08.2006
C045997,FASS001,17.05.2006
C045997,U00101/B,09.08.2006
C046164,TOJ03,19.09.2005
C046165,U00159,02.08.2005
C046217,U00101/B,12.12.2005
C046234,U00101/B,18.04.2006
C046265,U00101/B,18.08.2005
C046298,U00075,20.03.2006
C046298,U00101/B,13.03.2006
C046298,U00107/1,20.03.2006
C046298,U00296/A,13.03.2006
C046326,U00077,05.12.2005
C046406,U00122,18.04.2006
C046406,U00153,18.04.2006
C046406,U00101/B,18.04.2006
C046409,U00101/B,26.07.2005
C046482,U00101/B,03.08.2005
C046498,U00077,03.02.2006
C046504,U00309,19.10.2006
C046515,U00101/B,25.07.2005
C046520,U00153,03.02.2006
C046658,U00101/B,01.08.2005
C046698,U00013,12.09.2005
C046698,U00127,12.09.2005
C046698,U00153,12.09.2005
C046704,U00122,06.02.2006
C046704,U00159,06.02.2006
C046704,U00101/B,06.02.2006
C046839,U00101/B,19.10.2006
C047059,U00122,19.09.2005
C047059,U00101/B,19.09.2005
C047167,TOJ05,12.05.2006
C047184,U00125,03.08.2005
C047184,U00160,03.08.2005
C047297,U00153,16.08.2005
C047297,U00002/1,25.05.2006
C047297,U00296/A,25.05.2006
C047334,U00101/B,03.08.2005
C047349,U00203,16.01.2006
C047349,U00101/B,16.01.2006
C047423,U00153,30.08.2005
C047548,U00075,22.08.2005
C047548,U00122,22.08.2005
C047548,U00125,22.08.2005
C047548,U00160,22.08.2005
C047548,U00101/B,22.08.2005
C047548,U00102/B,22.08.2005
C047548,U00107/1,22.08.2005
C047548,U00296/A,22.08.2005
C047707,U00101/B,30.03.2006
C047849,FASS001,10.03.2006
C047889,FASS001,13.06.2006
C047898,U00101/B,23.10.2006
C047908,U00309,19.10.2006
C048173,TOJ01,20.10.2006
C048173,TOJ06,20.10.2006
C048185,U00159,08.08.2005
C048300,U00101/B,27.02.2006
C048307,TOJ03,18.08.2005
C048542,U00122,30.03.2006
C048542,U00002/1,30.03.2006
C048542,U00101/B,30.03.2006
C048675,U00161,12.08.2005
C048675,U00162,12.08.2005
C048851,U00122,05.12.2005
C048851,U00101/B,05.12.2005
C048851,U00107/1,05.12.2005
C049090,U00159,09.08.2006
C049148,U00153,25.07.2006
C049152,U00153,13.03.2006
C049152,U00162,13.03.2006
C049152,U00101/B,05.12.2005
C049221,U00153,13.03.2006
C049259,U00153,28.09.2005
C049259,U00101/B,03.08.2005
C049260,U00122,14.12.2005
C049260,U00127,14.12.2005
C049260,U00203,14.12.2005
C049260,U00101/B,14.12.2005
C049267,U00075,20.10.2005
C049267,U00122,20.10.2005
C049267,U00125,20.10.2005
C049267,U00159,20.10.2005
C049267,U00160,20.10.2005
C049267,U00002/1,20.10.2005
C049267,U00101/B,20.10.2005
C049267,U00102/B,20.10.2005
C049267,U00107/1,20.10.2005
C049267,U00296/A,20.10.2005
C049342,U00153,01.03.2006
C049342,U00203,23.03.2006
C049343,U00077,30.10.2006
C049377,U00153,08.02.2006
C049377,U00101/B,01.08.2005
C049405,U00015,08.03.2007
C049452,U00153,30.03.2006
C049462,TOJ01,21.12.2006
C049462,TOJ04,21.12.2006
C049462,TOJ06,09.08.2005
C049462,U00077,21.12.2006
C049462,U00127,21.12.2006
C049462,U00161,21.12.2006
C049462,U00162,21.12.2006
C049477,U00122,10.04.2006
C049483,U00153,19.09.2005
C049508,U00161,18.08.2005
C049508,U00162,18.08.2005
C049563,U00153,16.09.2005
C049582,U00101/B,12.09.2005
C049588,U00122,08.11.2005
C049600,TOJ06,23.08.2005
C049675,U00153,08.11.2006
C049675,U00107/1,08.11.2006
C049749,U00161,16.08.2005
C049749,U00162,16.08.2005
C049751,U00162,20.03.2006
C049824,U00101/B,02.08.2005
C049825,U00153,11.04.2006
C049830,U00075,19.04.2006
C049830,U00077,19.04.2006
C049830,U00002/1,13.04.2006
C049830,U00296/A,13.04.2006
C049843,U00153,26.09.2005
C049867,U00101/B,27.09.2005
C049955,U00122,20.03.2006
C049955,U00159,20.03.2006
C049970,FASS001,06.06.2006
C049978,TOJ01,17.08.2005
C049978,U00077,17.08.2005
C049978,U00127,17.08.2005
C049978,U00161,17.08.2005
C049978,U00162,17.08.2005
C049978,U00203,17.08.2005
C050040,U00015,20.03.2006
C050074,TOJ05,19.10.2006
C050074,U00101/B,13.03.2006
C050075,TOJ03,03.04.2006
C050075,TOJ05,19.10.2006
C050075,U00153,09.09.2005
C050075,U00101/B,09.09.2005
C050076,TOJ02,01.08.2005
C050123,U00075,13.03.2006
C050123,U00101/B,13.03.2006
C050166,U00015,20.03.2006
C050166,U00075,17.08.2005
C050166,U00077,20.03.2006
C050166,U00122,13.02.2006
C050166,U00127,20.03.2006
C050166,U00153,20.03.2006
C050166,U00159,13.02.2006
C050166,U00161,20.03.2006
C050166,U00162,20.03.2006
C050166,U00101/B,13.02.2006
C050222,U00101/B,27.02.2006
C050257,TOJ03,03.04.2006
C050257,U00122,23.10.2006
C050286,U00077,24.05.2006
C050286,U00153,08.08.2005
C050314,U00013,21.12.2006
C050314,U00015,30.10.2006
C050314,U00101/B,21.12.2006
C050320,TOJ04,02.08.2006
C050340,U00122,06.10.2005
C050375,U00101/B,14.12.2005
C050409,U00122,20.02.2006
C050443,TOJ05,03.10.2005
C050443,U00101/B,03.10.2005
C050474,TOJ03,06.03.2006
C050474,U00077,06.03.2006
C050478,U00125,18.10.2006
C050568,U00015,27.02.2006
C050568,U00153,27.02.2006
C050568,U00101/B,27.02.2006
C050664,U00101/B,18.10.2006
C050721,U00178,11.10.2005
C050721,U00101/B,11.10.2005
C050763,U00178,09.09.2005
C050806,U00101/B,06.03.2006
C050844,TOJ01,30.03.2006
C050845,TOJ06,18.10.2006
C050867,U00153,06.03.2006
C050886,U00159,20.03.2006
C050886,U00101/B,20.03.2006
C050943,U00178,12.12.2005
C050943,U00101/B,12.12.2005
C050979,U00077,26.09.2005
C051000,TOJ03,28.04.2006
C051000,U00015,28.04.2006
C051000,U00077,28.04.2006
C051068,U00002/1,17.02.2006
C051091,U00101/B,13.02.2006
C051100,TOJ06,18.08.2005
C051103,U00101/B,30.03.2006
C051104,TOJ06,06.03.2006
C051261,TOJ01,01.08.2005
C051353,U00153,25.10.2005
C051380,U00122,14.03.2006
C051380,U00101/B,14.03.2006
C051396,U00122,25.08.2005
C051549,TOJ05,15.09.2005
C051555,U00013,06.02.2006
C051555,U00101/B,06.02.2006
C051563,U00122,16.08.2005
C051563,U00153,23.08.2005
C051563,U00159,16.08.2005
C051585,U00077,12.05.2006
C051642,U00015,27.02.2006
C051648,U00077,12.09.2005
C051702,TOJ02,14.03.2006
C051702,TOJ04,14.03.2006
C051702,U00077,14.03.2006
C051702,U00203,14.03.2006
C051702,U00101/B,14.03.2006
C051830,U00101/B,13.03.2006
C051941,U00178,07.11.2005
C051941,U00101/B,07.11.2005
C051981,U00077,08.08.2005
C051981,U00203,09.08.2005
C052016,TOJ05,11.04.2006
C052016,U00013,11.04.2006
C052016,U00077,26.05.2006
C052016,U00153,13.03.2006
C052016,U00162,26.05.2006
C052016,U00101/B,26.05.2006
C052121,TOJ03,30.03.2006
C052121,U00077,30.03.2006
C052121,U00153,20.03.2006
C052148,U00015,25.07.2006
C052172,TOJ03,22.09.2005
C052172,U00153,16.08.2005
C052172,U00101/B,16.08.2005
C052201,U00101/B,25.07.2005
C052265,U00122,19.09.2005
C052277,TOJ03,15.05.2006
C052277,U00075,02.05.2006
C052277,U00077,15.05.2006
C052277,U00122,15.05.2006
C052277,U00125,02.05.2006
C052277,U00159,02.05.2006
C052277,U00296/A,15.05.2006
C052297,U00153,01.08.2005
C052321,U00153,01.08.2005
C052412,U00178,29.12.2005
C052428,U00153,12.09.2005
C052432,U00153,25.07.2006
C052460,TOJ05,25.07.2005
C052479,U00153,18.08.2005
C052549,TOJ03,28.02.2006
C052549,U00125,28.02.2006
C052576,U00101/B,06.03.2006
C052630,U00101/B,12.09.2005
C052818,U00122,06.03.2006
C052818,U00101/B,06.03.2006
C052879,TOJ05,13.03.2006
C052879,U00015,06.04.2006
C052879,U00122,13.03.2006
C052879,U00178,24.01.2006
C052879,U00101/B,06.04.2006
C052942,U00125,08.06.2006
C052942,U00102/B,08.06.2006
C053041,TOJ05,12.05.2006
C053041,U00127,12.05.2006
C053078,U00178,12.09.2005
C053078,U00101/B,12.09.2005
C053142,TOJ05,13.03.2006
C053142,U00122,13.03.2006
C053142,U00153,13.03.2006
C053142,U00159,13.03.2006
C053153,U00122,17.08.2005
C053187,U00101/B,11.10.2006
C053188,TOJ05,25.05.2006
C053188,U00159,17.05.2006
C053188,U00101/B,25.05.2006
C053200,U00077,25.07.2005
C053200,U00162,25.07.2005
C053200,U00203,25.07.2005
C053217,U00153,20.09.2005
C053270,TOJ06,05.09.2005
C053372,U00122,30.05.2006
C053372,U00159,30.05.2006
C053372,U00102/B,30.05.2006
C053383,U00101/B,08.02.2006
C053390,U00153,05.12.2005
C053390,U00178,05.12.2005
C053390,U00101/B,05.12.2005
C053440,U00015,02.02.2006
C053440,U00127,07.02.2006
C053440,U00153,02.02.2006
C053440,U00107/1,04.10.2006
C053575,U00013,19.04.2006
C053576,U00101/B,26.01.2006
C053663,U00077,05.09.2005
C053683,U00122,13.01.2006
C053683,U00101/B,13.01.2006
C053743,TOJ05,19.09.2005
C053757,U00153,08.02.2006
C053757,U00159,08.02.2006
C053828,U00122,01.06.2006
C053828,U00101/B,01.06.2006
C053828,U00296/A,01.06.2006
C053838,U00101/B,22.08.2005
C053853,TOJ05,05.09.2005
C053884,U00077,05.09.2005
C053930,TOJ05,20.10.2006
C054048,U00153,22.08.2005
C054103,TOJ03,06.03.2006
C054103,U00077,19.07.2006
C054103,U00159,12.09.2005
C054103,U00101/B,19.07.2006
C054108,U00015,04.01.2006
C054108,U00159,04.01.2006
C054137,TOJ03,07.04.2006
C054137,U00101/B,07.04.2006
C054142,U00122,07.09.2005
C054142,U00159,06.11.2008
C054142,U00101/B,07.09.2005
C054166,TOJ03,21.03.2006
C054206,U00015,28.07.2006
C054287,U00101/B,04.08.2006
C054323,U00160,10.10.2005
C054323,U00107/1,10.10.2005
C054386,U00203,27.02.2006
C054489,TOJ02,06.06.2006
C054489,U00161,21.02.2006
C054501,U00077,28.04.2006
C054539,U00101/B,20.10.2006
C054646,U00125,30.09.2005
C054646,U00102/B,18.10.2006
C054651,TOJ02,21.03.2006
C054675,U00015,07.02.2006
C054690,U00101/B,27.02.2006
C054759,U00015,20.09.2005
C054844,U00159,05.09.2005
C054948,U00159,03.04.2006
C055066,U00013,18.04.2006
C055066,U00015,18.04.2006
C055066,U00101/B,30.10.2006
C055135,FASS001,09.06.2006
C055153,U00101/B,05.12.2005
C055199,U00101/B,19.10.2006
C055243,U00015,28.03.2006
C055251,TOJ05,15.03.2006
C055251,U00013,10.08.2005
C055251,U00015,10.08.2005
C055251,U00153,10.08.2005
C055251,U00159,15.03.2006
C055292,TOJ05,20.02.2006
C055292,U00122,20.02.2006
C055292,U00153,20.02.2006
C055382,TOJ04,06.02.2006
C055382,U00015,15.11.2006
C055382,U00077,06.02.2006
C055427,TOJ05,27.09.2005
C055427,U00122,27.04.2006
C055427,U00107/1,27.04.2006
C055427,U00296/A,27.04.2006
C055492,TOJ05,29.08.2005
C055605,TOJ05,27.09.2005
C055605,U00178,27.09.2005
C055605,U00101/B,27.09.2005
C055776,FASS001,08.05.2006
C055805,U00125,08.08.2005
C055868,U00125,08.03.2006
C055904,U00015,13.02.2006
C055918,U00159,27.02.2006
C055918,FASS001,16.05.2006
C055958,U00015,22.08.2005
C055958,U00125,10.08.2005
C055967,U00160,20.03.2006
C056037,U00101/B,06.03.2006
C056041,U00075,10.04.2006
C056041,U00101/B,29.03.2006
C056045,TOJ05,13.09.2005
C056049,U00153,27.07.2005
C056137,U00122,08.11.2005
C056137,U00178,08.11.2005
C056137,U00002/1,08.11.2005
C056137,U00102/B,08.11.2005
C056137,U00107/1,08.11.2005
C056232,U00153,27.02.2006
C056235,U00101/B,20.12.2005
C056245,TOJ03,27.02.2006
C056245,U00101/B,27.02.2006
C056324,U00125,08.08.2005
C056324,U00160,08.08.2005
C056324,U00102/B,12.06.2006
C056379,U00013,14.02.2006
C056379,U00101/B,14.02.2006
C056462,U00153,02.08.2005
C056462,U00178,12.09.2005
C056544,FASS001,07.06.2006
C056585,TOJ01,15.11.2006
C056585,TOJ03,15.11.2006
C056585,TOJ06,15.11.2006
C056585,U00077,15.11.2006
C056585,U00153,15.11.2006
C056636,U00153,26.07.2005
C056651,U00159,20.04.2006
C056656,U00101/B,26.07.2005
C056665,U00203,26.04.2006
C056669,U00101/B,29.03.2006
C056715,U00101/B,19.12.2005
C056735,U00101/B,18.04.2006
C056779,TOJ03,05.08.2005
C056779,TOJ05,05.08.2005
C056779,U00122,08.06.2006
C056779,U00125,08.06.2006
C056779,U00101/B,05.08.2005
C056779,U00296/A,08.06.2006
C056807,U00101/B,20.02.2006
C056822,U00296/A,06.03.2006
C056834,U00075,19.10.2006
C056834,U00101/B,19.10.2006
C056857,U00101/B,08.08.2005
C056874,U00107/1,02.11.2006
C056963,U00101/B,22.08.2005
C056999,U00153,28.06.2006
C056999,U00159,09.01.2006
C057012,TOJ03,13.03.2006
C057012,TOJ05,13.03.2006
C057082,U00125,14.09.2005
C057109,U00153,25.08.2005
C057115,U00101/B,16.08.2005
C057129,U00153,16.08.2005
C057173,TOJ03,02.09.2005
C057173,TOJ05,06.03.2006
C057173,U00159,02.09.2005
C057182,U00159,30.08.2005
C057182,U00002/1,30.08.2005
C057182,U00101/B,30.08.2005
C057220,U00153,23.03.2006
C057288,U00015,26.05.2006
C057288,U00101/B,26.05.2006
C057295,U00075,15.11.2005
C057295,U00107/1,15.11.2005
C057302,U00077,01.08.2005
C057302,U00101/B,12.09.2005
C057403,U00125,13.02.2006
C057403,U00153,13.02.2006
C057495,U00122,07.02.2006
C057495,U00127,07.02.2006
C057495,U00159,07.02.2006
C057495,U00101/B,07.02.2006
C057511,U00125,24.08.2005
C057548,FASS001,01.06.2006
C057561,U00153,03.03.2006
C057561,U00101/B,03.03.2006
C057832,U00101/B,07.06.2006
C057887,U00178,27.09.2005
C057900,U00125,06.03.2006
C057900,U00102/B,18.10.2006
C057940,U00013,02.08.2005
C057957,TOJ01,07.11.2005
C057957,TOJ06,07.11.2005
C058033,U00013,22.02.2006
C058051,U00013,28.02.2006
C058051,U00125,28.02.2006
C058081,U00077,01.08.2005
C058081,U00203,01.08.2005
C058160,U00077,05.09.2005
C058160,U00153,05.09.2005
C058287,U00125,05.09.2005
C058288,TOJ05,29.08.2005
C058288,U00101/B,29.08.2005
C058305,U00015,08.06.2006
C058305,U00077,06.02.2006
C058305,U00127,06.02.2006
C058305,U00159,23.12.2005
C058305,U00162,06.02.2006
C058306,FASS001,08.06.2006
C058313,U00159,08.08.2005
C058347,U00159,19.09.2005
C058352,U00159,22.07.2005
C058352,U00101/B,22.07.2005
C058392,U00075,16.08.2005
C058392,U00107/1,16.08.2005
C058399,TOJ02,01.03.2006
C058399,TOJ04,01.03.2006
C058399,TOJ05,01.03.2006
C058399,TOJ06,01.03.2006
C058399,U00015,01.03.2006
C058399,U00127,01.03.2006
C058399,U00159,06.02.2006
C058432,TOJ05,02.05.2006
C058432,U00122,02.05.2006
C058462,U00101/B,25.07.2005
C058469,FASS001,17.05.2006
C058575,U00153,31.03.2006
C058607,U00159,10.04.2006
C058640,U00002/1,06.06.2006
C058665,U00125,21.09.2005
C058676,U00153,30.09.2005
C058676,U00296/A,08.08.2005
C058720,U00107/1,16.08.2005
C058844,TOJ03,27.07.2005
C058898,U00101/B,03.05.2006
C058927,TOJ02,19.09.2005
C058927,TOJ05,19.09.2005
C058927,U00178,19.09.2005
C058927,U00101/B,19.09.2005
C058997,U00101/B,27.02.2006
C059009,U00101/B,18.04.2006
C059043,U00122,04.08.2005
C059043,U00296/A,04.08.2005
C059075,TOJ04,13.04.2006
C059075,U00127,08.02.2006
C059076,U00122,22.08.2005
C059236,U00101/B,13.03.2006
C059239,U00153,20.02.2006
C059257,U00101/B,17.10.2005
C059258,U00153,05.12.2005
C059262,U00127,28.02.2006
C059334,U00122,06.02.2006
C059334,U00101/B,19.10.2006
C059421,TOJ05,06.02.2006
C059421,U00122,21.09.2005
C059421,U00159,21.09.2005
C059421,U00101/B,21.09.2005
C059426,U00101/B,27.03.2006
C059500,U00122,05.09.2005
C059564,U00101/B,06.03.2006
C059591,U00122,06.10.2005
C059627,U00101/B,10.04.2006
C059721,FASS001,23.06.2006
C059721,U00101/B,02.08.2005
C059727,U00296/A,23.08.2005
C059846,U00101/B,09.08.2005
C059851,U00101/B,06.02.2006
C059894,U00101/B,03.04.2006
C059956,TOJ02,09.01.2006
C059956,U00015,09.01.2006
C059956,U00122,09.01.2006
C059956,U00153,09.01.2006
C059956,U00101/B,09.01.2006
C060068,FASS001,21.06.2006
C060112,U00015,03.03.2006
C060112,U00075,03.03.2006
C060112,U00125,03.03.2006
C060112,FASS001,03.03.2006
C060112,U00102/B,10.02.2006
C060112,U00107/1,03.03.2006
C060119,U00101/B,29.05.2006
C060131,U00015,14.09.2006
C060169,U00101/B,06.03.2006
C060179,U00153,20.03.2006
C060188,U00153,02.09.2005
C060211,U00122,25.08.2005
C060211,U00159,25.08.2005
C060211,U00101/B,25.08.2005
C060258,U00203,10.10.2005
C060287,TOJ03,21.09.2005
C060287,U00015,20.04.2006
C060287,U00101/B,20.04.2006
C060294,U00159,16.08.2005
C060412,TOJ01,31.05.2006
C060412,TOJ02,31.05.2006
C060412,TOJ03,31.05.2006
C060412,TOJ04,04.12.2006
C060412,TOJ05,06.03.2006
C060412,TOJ06,31.05.2006
C060412,U00015,06.03.2006
C060412,U00077,21.03.2006
C060412,U00122,06.03.2006
C060412,U00127,31.05.2006
C060412,U00153,31.05.2006
C060412,U00161,31.05.2006
C060412,U00162,31.05.2006
C060412,U00203,31.05.2006
C060412,U00101/B,04.12.2006
C060488,U00101/B,11.08.2005
C060652,TOJ02,17.02.2006
C060652,TOJ03,03.11.2006
C060652,TOJ06,17.02.2006
C060652,U00153,17.02.2006
C060652,U00101/B,17.02.2006
C060665,U00075,31.05.2006
C060673,TOJ03,20.02.2006
C060673,TOJ05,20.02.2006
C060673,U00101/B,20.02.2006
C060685,U00015,09.01.2006
C060725,U00077,14.09.2005
C060735,U00015,14.02.2006
C060735,U00101/B,01.06.2006
C060754,TOJ06,10.01.2006
C060835,U00015,19.10.2006
C060835,U00309,19.10.2006
C060835,U00321,19.10.2006
C060884,U00127,23.08.2005
C060935,U00077,18.10.2006
C060935,U00122,05.04.2006
C060935,U00153,05.04.2006
C060935,U00162,30.03.2006
C060935,U00101/B,30.03.2006
C060943,U00178,29.12.2005
C060943,U00101/B,29.12.2005
C060951,U00077,03.05.2006
C060951,U00122,02.03.2006
C060951,U00153,27.09.2005
C060951,U00162,03.05.2006
C060951,U00101/B,13.12.2005
C060960,TOJ01,26.09.2005
C060960,U00122,23.10.2006
C060960,U00159,23.10.2006
C060960,U00101/B,29.12.2005
C060969,TOJ01,16.01.2006
C060969,TOJ06,16.01.2006
C060969,U00077,16.01.2006
C060969,U00161,27.02.2006
C060969,U00162,27.02.2006
C061028,TOJ03,11.11.2005
C061028,TOJ05,11.11.2005
C061028,TOJ06,11.11.2005
C061028,U00153,11.11.2005
C061028,U00178,11.11.2005
C061061,U00122,06.09.2005
C061061,U00153,06.09.2005
C061061,U00178,06.09.2005
C061061,U00101/B,06.09.2005
C061078,TOJ01,10.11.2005
C061078,TOJ06,10.11.2005
C061078,U00127,18.04.2006
C061078,U00203,10.11.2005
C061166,FASS001,08.06.2006
C061180,U00015,18.10.2006
C061232,U00101/B,08.06.2006
C061264,U00101/B,05.09.2006
C061294,U00101/B,23.05.2006
C061307,U00101/B,15.12.2005
C061339,U00101/B,12.04.2006
C061413,TOJ06,25.01.2006
C061441,U00161,29.08.2005
C061441,U00162,29.08.2005
C061524,U00101/B,06.03.2006
C061563,TOJ05,28.07.2005
C061563,U00122,28.07.2005
C061563,U00101/B,28.07.2005
C061637,U00122,08.09.2005
C061637,U00153,08.09.2005
C061637,U00178,08.09.2005
C061642,U00101/B,06.03.2006
C061668,TOJ06,12.09.2005
C061668,U00127,20.02.2006
C062035,U00101/B,10.11.2005
C062035,U00102/B,10.11.2005
C062075,U00122,28.12.2005
C062094,TOJ05,28.02.2006
C062094,U00122,28.02.2006
C062094,U00153,28.02.2006
C062106,FASS001,15.06.2006
C062118,TOJ06,27.10.2005
C062201,U00015,06.03.2006
C062947,U00101/B,20.03.2006
C068009,U00013,20.02.2006
C068009,U00203,20.02.2006
C068009,U00101/B,20.02.2006
C071051,U00015,27.01.2006
U304906,U00203,05.12.2005
U602027,U00122,17.02.2006
U602027,U00153,17.02.2006
U602027,U00101/B,17.02.2006
UI43895,U00295,19.06.2006
UI43937,U00002/1,07.04.2006
UI43937,U00101/B,18.10.2006
UI43961,U00295,19.06.2006
UI43983,U00122,08.02.2006
UI43983,U00153,08.02.2006
UI43983,U00159,08.02.2006
UI44018,U00153,16.08.2005
UI44038,U00159,07.03.2006
UI44038,U00101/B,07.03.2006
UI44039,U00125,01.08.2005
UI44039,U00102/B,01.08.2005
UI44042,U00075,18.04.2006
UI44058,U00013,26.09.2005
UI44087,U00002/1,07.03.2006
UI44089,U00101/B,20.02.2006
UI44170,U00013,13.02.2006
UI44170,U00153,13.02.2006
UI44177,U00101/B,22.02.2006
UI44191,U00122,16.08.2005
UI44191,U00153,07.02.2006
UI44191,U00101/B,16.08.2005
UI44258,U00015,22.08.2005
UI44258,U00075,29.06.2007
UI44258,U00122,29.06.2007
UI44258,U00127,22.08.2005
UI44258,U00159,29.06.2007
UI44258,U00203,22.08.2005
UI44258,U00101/B,29.06.2007
UI44258,U00107/1,29.06.2007
UI44312,U00058,19.06.2006
UI44312,U00294,19.06.2006
UI44345,U00242,19.06.2006
UI45043,TOJ04,27.03.2006
UI45043,TOJ05,27.03.2006
UI45043,TOJ06,27.03.2006
UI45043,U00203,27.03.2006
UI45164,U00075,20.10.2006
UI45164,U00159,20.10.2006
UI45164,U00160,16.08.2005
UI45164,U00203,16.08.2005
UI45164,U00002/1,16.08.2005
UI45164,U00296/A,16.08.2005
UI50081,U00178,05.09.2005
UI50081,U00101/B,05.09.2005
UI50220,TOJ05,11.08.2005
UI50220,U00122,19.10.2006
UI50220,U00159,19.10.2006
UI50220,U00002/1,11.08.2005
UI50220,U00101/B,11.08.2005
UI50221,FASS001,08.06.2006
UI50245,TOJ05,26.07.2005
UI50245,U00101/B,26.07.2005
UI50495,FASS001,09.05.2006
US01531,U00015,27.10.2005
